%YAML 1.1
%TAG !u! tag:unity3d.com,2011:
--- !u!21 &2100000
Material:
  serializedVersion: 6
  m_ObjectHideFlags: 0
  m_PrefabParentObject: {fileID: 0}
  m_PrefabInternal: {fileID: 0}
  m_Name: Skybox_Horizon With Sun Skybox
  m_Shader: {fileID: 4800000, guid: e62beaebaf9ec4da8ae22bfefe5cbb79, type: 3}
  m_ShaderKeywords: 
  m_LightmapFlags: 4
  m_EnableInstancingVariants: 0
  m_DoubleSidedGI: 0
  m_CustomRenderQueue: -1
  stringTagMap: {}
  disabledShaderPasses: []
  m_SavedProperties:
    serializedVersion: 3
    m_TexEnvs: []
    m_Floats:
    - _SkyExponent1: 8.5
    - _SkyExponent2: 3
    - _SkyIntensity: 1
    - _SunAlpha: 550
    - _SunAltitude: 38
    - _SunAzimuth: 20
    - _SunBeta: 1
    - _SunIntensity: 2
    m_Colors:
    - _SkyColor1: {r: 0.37, g: 0.52, b: 0.73, a: 0}
    - _SkyColor2: {r: 0.89, g: 0.96, b: 1, a: 0}
    - _SkyColor3: {r: 0.89, g: 0.89, b: 0.89, a: 0}
    - _SunColor: {r: 1, g: 0.99, b: 0.87, a: 1}
    - _SunVector: {r: 0.269, g: 0.615, b: 0.74, a: 0}
